   0  $accept : %entry% $end

   1  program :
   2          | gdecl program

   3  gdecl : fdecl
   4        | fdefn
   5        | typedef

   6  fdecl : typ IDENT param_list SEMI

   7  fdefn : typ IDENT param_list block

   8  param : typ IDENT

   9  param_list_follow :
  10                    | COMMA param param_list_follow

  11  param_list : LPAREN RPAREN
  12             | LPAREN param param_list_follow RPAREN

  13  typedef : TYPEDEF typ IDENT SEMI

  14  typ : INT
  15      | BOOL
  16      | IDENT
  17      | VOID

  18  block : LBRACE stmts RBRACE

  19  decl : typ IDENT
  20       | typ IDENT ASSIGN exp

  21  stmts :
  22        | stmt stmts

  23  stmt : simp SEMI
  24       | control
  25       | block

  26  simp : lvalue asop exp
  27       | lvalue postop
  28       | decl
  29       | exp

  30  simpopt :
  31          | simp

  32  lvalue : IDENT
  33         | LPAREN lvalue RPAREN

  34  elseopt :
  35          | ELSE stmt

  36  control : IF LPAREN exp RPAREN stmt elseopt
  37          | WHILE LPAREN exp RPAREN stmt
  38          | FOR LPAREN simpopt SEMI exp SEMI simpopt RPAREN stmt
  39          | RETURN exp SEMI
  40          | RETURN SEMI
  41          | ASSERT LPAREN exp RPAREN SEMI

  42  arg_list_follow :
  43                  | COMMA exp arg_list_follow

  44  arg_list : LPAREN RPAREN
  45           | LPAREN exp arg_list_follow RPAREN

  46  exp : LPAREN exp RPAREN
  47      | lvalue
  48      | intconst
  49      | TRUE
  50      | FALSE
  51      | LOGICNOT exp
  52      | BITNOT exp
  53      | MINUS exp
  54      | exp STAR exp
  55      | exp SLASH exp
  56      | exp PERCENT exp
  57      | exp PLUS exp
  58      | exp MINUS exp
  59      | exp SAL exp
  60      | exp SAR exp
  61      | exp LESS exp
  62      | exp LESSEQUAL exp
  63      | exp GREATER exp
  64      | exp GREATEREQUAL exp
  65      | exp EQUALS exp
  66      | exp NOTEQUALS exp
  67      | exp BITAND exp
  68      | exp XOR exp
  69      | exp BITOR exp
  70      | exp LOGICAND exp
  71      | exp LOGICOR exp
  72      | exp QUESTION exp COLON exp
  73      | IDENT arg_list

  74  intconst : DECCONST
  75           | HEXCONST

  76  postop : PLUSPLUS
  77         | MINUSMINUS

  78  asop : ASSIGN
  79       | PLUSEQ
  80       | MINUSEQ
  81       | STAREQ
  82       | SLASHEQ
  83       | PERCENTEQ
  84       | BITANDEQ
  85       | BITOREQ
  86       | XOREQ
  87       | SAREQ
  88       | SALEQ

  89  %entry% : '\001' program

state 0
	$accept : . %entry% $end  (0)

	'\001'  shift 1
	.  error

	%entry%  goto 2


state 1
	%entry% : '\001' . program  (89)
	program : .  (1)

	TYPEDEF  shift 3
	BOOL  shift 4
	VOID  shift 5
	IDENT  shift 6
	INT  shift 7
	$end  reduce 1

	program  goto 8
	gdecl  goto 9
	fdecl  goto 10
	fdefn  goto 11
	typedef  goto 12
	typ  goto 13


state 2
	$accept : %entry% . $end  (0)

	$end  accept


state 3
	typedef : TYPEDEF . typ IDENT SEMI  (13)

	BOOL  shift 4
	VOID  shift 5
	IDENT  shift 6
	INT  shift 7
	.  error

	typ  goto 14


state 4
	typ : BOOL .  (15)

	.  reduce 15


state 5
	typ : VOID .  (17)

	.  reduce 17


state 6
	typ : IDENT .  (16)

	.  reduce 16


state 7
	typ : INT .  (14)

	.  reduce 14


state 8
	%entry% : '\001' program .  (89)

	.  reduce 89


state 9
	program : gdecl . program  (2)
	program : .  (1)

	TYPEDEF  shift 3
	BOOL  shift 4
	VOID  shift 5
	IDENT  shift 6
	INT  shift 7
	$end  reduce 1

	program  goto 15
	gdecl  goto 9
	fdecl  goto 10
	fdefn  goto 11
	typedef  goto 12
	typ  goto 13


state 10
	gdecl : fdecl .  (3)

	.  reduce 3


state 11
	gdecl : fdefn .  (4)

	.  reduce 4


state 12
	gdecl : typedef .  (5)

	.  reduce 5


state 13
	fdecl : typ . IDENT param_list SEMI  (6)
	fdefn : typ . IDENT param_list block  (7)

	IDENT  shift 16
	.  error


state 14
	typedef : TYPEDEF typ . IDENT SEMI  (13)

	IDENT  shift 17
	.  error


state 15
	program : gdecl program .  (2)

	.  reduce 2


state 16
	fdecl : typ IDENT . param_list SEMI  (6)
	fdefn : typ IDENT . param_list block  (7)

	LPAREN  shift 18
	.  error

	param_list  goto 19


state 17
	typedef : TYPEDEF typ IDENT . SEMI  (13)

	SEMI  shift 20
	.  error


state 18
	param_list : LPAREN . RPAREN  (11)
	param_list : LPAREN . param param_list_follow RPAREN  (12)

	BOOL  shift 4
	VOID  shift 5
	IDENT  shift 6
	INT  shift 7
	RPAREN  shift 21
	.  error

	typ  goto 22
	param  goto 23


state 19
	fdecl : typ IDENT param_list . SEMI  (6)
	fdefn : typ IDENT param_list . block  (7)

	SEMI  shift 24
	LBRACE  shift 25
	.  error

	block  goto 26


state 20
	typedef : TYPEDEF typ IDENT SEMI .  (13)

	.  reduce 13


state 21
	param_list : LPAREN RPAREN .  (11)

	.  reduce 11


state 22
	param : typ . IDENT  (8)

	IDENT  shift 27
	.  error


state 23
	param_list : LPAREN param . param_list_follow RPAREN  (12)
	param_list_follow : .  (9)

	COMMA  shift 28
	RPAREN  reduce 9

	param_list_follow  goto 29


state 24
	fdecl : typ IDENT param_list SEMI .  (6)

	.  reduce 6


state 25
	block : LBRACE . stmts RBRACE  (18)
	stmts : .  (21)

	IF  shift 30
	WHILE  shift 31
	FOR  shift 32
	ASSERT  shift 33
	TRUE  shift 34
	FALSE  shift 35
	BOOL  shift 4
	VOID  shift 5
	DECCONST  shift 36
	HEXCONST  shift 37
	IDENT  shift 38
	RETURN  shift 39
	INT  shift 7
	MINUS  shift 40
	BITNOT  shift 41
	LOGICNOT  shift 42
	LBRACE  shift 25
	LPAREN  shift 43
	RBRACE  reduce 21

	typ  goto 44
	block  goto 45
	stmts  goto 46
	decl  goto 47
	exp  goto 48
	stmt  goto 49
	simp  goto 50
	control  goto 51
	lvalue  goto 52
	intconst  goto 53


state 26
	fdefn : typ IDENT param_list block .  (7)

	.  reduce 7


state 27
	param : typ IDENT .  (8)

	.  reduce 8


state 28
	param_list_follow : COMMA . param param_list_follow  (10)

	BOOL  shift 4
	VOID  shift 5
	IDENT  shift 6
	INT  shift 7
	.  error

	typ  goto 22
	param  goto 54


state 29
	param_list : LPAREN param param_list_follow . RPAREN  (12)

	RPAREN  shift 55
	.  error


state 30
	control : IF . LPAREN exp RPAREN stmt elseopt  (36)

	LPAREN  shift 56
	.  error


state 31
	control : WHILE . LPAREN exp RPAREN stmt  (37)

	LPAREN  shift 57
	.  error


state 32
	control : FOR . LPAREN simpopt SEMI exp SEMI simpopt RPAREN stmt  (38)

	LPAREN  shift 58
	.  error


state 33
	control : ASSERT . LPAREN exp RPAREN SEMI  (41)

	LPAREN  shift 59
	.  error


state 34
	exp : TRUE .  (49)

	.  reduce 49


state 35
	exp : FALSE .  (50)

	.  reduce 50


state 36
	intconst : DECCONST .  (74)

	.  reduce 74


state 37
	intconst : HEXCONST .  (75)

	.  reduce 75


state 38
	typ : IDENT .  (16)
	lvalue : IDENT .  (32)
	exp : IDENT . arg_list  (73)

	LPAREN  shift 60
	SEMI  reduce 32
	IDENT  reduce 16
	PLUS  reduce 32
	MINUS  reduce 32
	STAR  reduce 32
	SLASH  reduce 32
	PERCENT  reduce 32
	BITAND  reduce 32
	BITOR  reduce 32
	XOR  reduce 32
	LOGICAND  reduce 32
	LOGICOR  reduce 32
	PLUSPLUS  reduce 32
	MINUSMINUS  reduce 32
	SAR  reduce 32
	SAL  reduce 32
	EQUALS  reduce 32
	NOTEQUALS  reduce 32
	LESSEQUAL  reduce 32
	GREATEREQUAL  reduce 32
	LESS  reduce 32
	GREATER  reduce 32
	QUESTION  reduce 32
	ASSIGN  reduce 32
	PLUSEQ  reduce 32
	MINUSEQ  reduce 32
	STAREQ  reduce 32
	SLASHEQ  reduce 32
	PERCENTEQ  reduce 32
	BITANDEQ  reduce 32
	BITOREQ  reduce 32
	XOREQ  reduce 32
	SAREQ  reduce 32
	SALEQ  reduce 32
	RPAREN  reduce 32

	arg_list  goto 61


state 39
	control : RETURN . exp SEMI  (39)
	control : RETURN . SEMI  (40)

	TRUE  shift 34
	FALSE  shift 35
	SEMI  shift 62
	DECCONST  shift 36
	HEXCONST  shift 37
	IDENT  shift 63
	MINUS  shift 40
	BITNOT  shift 41
	LOGICNOT  shift 42
	LPAREN  shift 43
	.  error

	exp  goto 64
	lvalue  goto 65
	intconst  goto 53


state 40
	exp : MINUS . exp  (53)

	TRUE  shift 34
	FALSE  shift 35
	DECCONST  shift 36
	HEXCONST  shift 37
	IDENT  shift 63
	MINUS  shift 40
	BITNOT  shift 41
	LOGICNOT  shift 42
	LPAREN  shift 43
	.  error

	exp  goto 66
	lvalue  goto 65
	intconst  goto 53


state 41
	exp : BITNOT . exp  (52)

	TRUE  shift 34
	FALSE  shift 35
	DECCONST  shift 36
	HEXCONST  shift 37
	IDENT  shift 63
	MINUS  shift 40
	BITNOT  shift 41
	LOGICNOT  shift 42
	LPAREN  shift 43
	.  error

	exp  goto 67
	lvalue  goto 65
	intconst  goto 53


state 42
	exp : LOGICNOT . exp  (51)

	TRUE  shift 34
	FALSE  shift 35
	DECCONST  shift 36
	HEXCONST  shift 37
	IDENT  shift 63
	MINUS  shift 40
	BITNOT  shift 41
	LOGICNOT  shift 42
	LPAREN  shift 43
	.  error

	exp  goto 68
	lvalue  goto 65
	intconst  goto 53


state 43
	lvalue : LPAREN . lvalue RPAREN  (33)
	exp : LPAREN . exp RPAREN  (46)

	TRUE  shift 34
	FALSE  shift 35
	DECCONST  shift 36
	HEXCONST  shift 37
	IDENT  shift 63
	MINUS  shift 40
	BITNOT  shift 41
	LOGICNOT  shift 42
	LPAREN  shift 43
	.  error

	exp  goto 69
	lvalue  goto 70
	intconst  goto 53


state 44
	decl : typ . IDENT  (19)
	decl : typ . IDENT ASSIGN exp  (20)

	IDENT  shift 71
	.  error


state 45
	stmt : block .  (25)

	.  reduce 25


state 46
	block : LBRACE stmts . RBRACE  (18)

	RBRACE  shift 72
	.  error


state 47
	simp : decl .  (28)

	.  reduce 28


state 48
	simp : exp .  (29)
	exp : exp . STAR exp  (54)
	exp : exp . SLASH exp  (55)
	exp : exp . PERCENT exp  (56)
	exp : exp . PLUS exp  (57)
	exp : exp . MINUS exp  (58)
	exp : exp . SAL exp  (59)
	exp : exp . SAR exp  (60)
	exp : exp . LESS exp  (61)
	exp : exp . LESSEQUAL exp  (62)
	exp : exp . GREATER exp  (63)
	exp : exp . GREATEREQUAL exp  (64)
	exp : exp . EQUALS exp  (65)
	exp : exp . NOTEQUALS exp  (66)
	exp : exp . BITAND exp  (67)
	exp : exp . XOR exp  (68)
	exp : exp . BITOR exp  (69)
	exp : exp . LOGICAND exp  (70)
	exp : exp . LOGICOR exp  (71)
	exp : exp . QUESTION exp COLON exp  (72)

	PLUS  shift 73
	MINUS  shift 74
	STAR  shift 75
	SLASH  shift 76
	PERCENT  shift 77
	BITAND  shift 78
	BITOR  shift 79
	XOR  shift 80
	LOGICAND  shift 81
	LOGICOR  shift 82
	SAR  shift 83
	SAL  shift 84
	EQUALS  shift 85
	NOTEQUALS  shift 86
	LESSEQUAL  shift 87
	GREATEREQUAL  shift 88
	LESS  shift 89
	GREATER  shift 90
	QUESTION  shift 91
	SEMI  reduce 29
	RPAREN  reduce 29


state 49
	stmts : stmt . stmts  (22)
	stmts : .  (21)

	IF  shift 30
	WHILE  shift 31
	FOR  shift 32
	ASSERT  shift 33
	TRUE  shift 34
	FALSE  shift 35
	BOOL  shift 4
	VOID  shift 5
	DECCONST  shift 36
	HEXCONST  shift 37
	IDENT  shift 38
	RETURN  shift 39
	INT  shift 7
	MINUS  shift 40
	BITNOT  shift 41
	LOGICNOT  shift 42
	LBRACE  shift 25
	LPAREN  shift 43
	RBRACE  reduce 21

	typ  goto 44
	block  goto 45
	stmts  goto 92
	decl  goto 47
	exp  goto 48
	stmt  goto 49
	simp  goto 50
	control  goto 51
	lvalue  goto 52
	intconst  goto 53


state 50
	stmt : simp . SEMI  (23)

	SEMI  shift 93
	.  error


state 51
	stmt : control .  (24)

	.  reduce 24


state 52
	simp : lvalue . asop exp  (26)
	simp : lvalue . postop  (27)
	exp : lvalue .  (47)

	PLUSPLUS  shift 94
	MINUSMINUS  shift 95
	ASSIGN  shift 96
	PLUSEQ  shift 97
	MINUSEQ  shift 98
	STAREQ  shift 99
	SLASHEQ  shift 100
	PERCENTEQ  shift 101
	BITANDEQ  shift 102
	BITOREQ  shift 103
	XOREQ  shift 104
	SAREQ  shift 105
	SALEQ  shift 106
	SEMI  reduce 47
	PLUS  reduce 47
	MINUS  reduce 47
	STAR  reduce 47
	SLASH  reduce 47
	PERCENT  reduce 47
	BITAND  reduce 47
	BITOR  reduce 47
	XOR  reduce 47
	LOGICAND  reduce 47
	LOGICOR  reduce 47
	SAR  reduce 47
	SAL  reduce 47
	EQUALS  reduce 47
	NOTEQUALS  reduce 47
	LESSEQUAL  reduce 47
	GREATEREQUAL  reduce 47
	LESS  reduce 47
	GREATER  reduce 47
	QUESTION  reduce 47
	RPAREN  reduce 47

	asop  goto 107
	postop  goto 108


state 53
	exp : intconst .  (48)

	.  reduce 48


state 54
	param_list_follow : COMMA param . param_list_follow  (10)
	param_list_follow : .  (9)

	COMMA  shift 28
	RPAREN  reduce 9

	param_list_follow  goto 109


state 55
	param_list : LPAREN param param_list_follow RPAREN .  (12)

	.  reduce 12


state 56
	control : IF LPAREN . exp RPAREN stmt elseopt  (36)

	TRUE  shift 34
	FALSE  shift 35
	DECCONST  shift 36
	HEXCONST  shift 37
	IDENT  shift 63
	MINUS  shift 40
	BITNOT  shift 41
	LOGICNOT  shift 42
	LPAREN  shift 43
	.  error

	exp  goto 110
	lvalue  goto 65
	intconst  goto 53


state 57
	control : WHILE LPAREN . exp RPAREN stmt  (37)

	TRUE  shift 34
	FALSE  shift 35
	DECCONST  shift 36
	HEXCONST  shift 37
	IDENT  shift 63
	MINUS  shift 40
	BITNOT  shift 41
	LOGICNOT  shift 42
	LPAREN  shift 43
	.  error

	exp  goto 111
	lvalue  goto 65
	intconst  goto 53


state 58
	control : FOR LPAREN . simpopt SEMI exp SEMI simpopt RPAREN stmt  (38)
	simpopt : .  (30)

	TRUE  shift 34
	FALSE  shift 35
	BOOL  shift 4
	VOID  shift 5
	DECCONST  shift 36
	HEXCONST  shift 37
	IDENT  shift 38
	INT  shift 7
	MINUS  shift 40
	BITNOT  shift 41
	LOGICNOT  shift 42
	LPAREN  shift 43
	SEMI  reduce 30

	typ  goto 44
	decl  goto 47
	exp  goto 48
	simp  goto 112
	lvalue  goto 52
	simpopt  goto 113
	intconst  goto 53


state 59
	control : ASSERT LPAREN . exp RPAREN SEMI  (41)

	TRUE  shift 34
	FALSE  shift 35
	DECCONST  shift 36
	HEXCONST  shift 37
	IDENT  shift 63
	MINUS  shift 40
	BITNOT  shift 41
	LOGICNOT  shift 42
	LPAREN  shift 43
	.  error

	exp  goto 114
	lvalue  goto 65
	intconst  goto 53


state 60
	arg_list : LPAREN . RPAREN  (44)
	arg_list : LPAREN . exp arg_list_follow RPAREN  (45)

	TRUE  shift 34
	FALSE  shift 35
	DECCONST  shift 36
	HEXCONST  shift 37
	IDENT  shift 63
	MINUS  shift 40
	BITNOT  shift 41
	LOGICNOT  shift 42
	LPAREN  shift 43
	RPAREN  shift 115
	.  error

	exp  goto 116
	lvalue  goto 65
	intconst  goto 53


state 61
	exp : IDENT arg_list .  (73)

	.  reduce 73


state 62
	control : RETURN SEMI .  (40)

	.  reduce 40


state 63
	lvalue : IDENT .  (32)
	exp : IDENT . arg_list  (73)

	LPAREN  shift 60
	SEMI  reduce 32
	PLUS  reduce 32
	MINUS  reduce 32
	STAR  reduce 32
	SLASH  reduce 32
	PERCENT  reduce 32
	BITAND  reduce 32
	BITOR  reduce 32
	XOR  reduce 32
	LOGICAND  reduce 32
	LOGICOR  reduce 32
	SAR  reduce 32
	SAL  reduce 32
	EQUALS  reduce 32
	NOTEQUALS  reduce 32
	LESSEQUAL  reduce 32
	GREATEREQUAL  reduce 32
	LESS  reduce 32
	GREATER  reduce 32
	QUESTION  reduce 32
	COLON  reduce 32
	RPAREN  reduce 32
	COMMA  reduce 32

	arg_list  goto 61


state 64
	control : RETURN exp . SEMI  (39)
	exp : exp . STAR exp  (54)
	exp : exp . SLASH exp  (55)
	exp : exp . PERCENT exp  (56)
	exp : exp . PLUS exp  (57)
	exp : exp . MINUS exp  (58)
	exp : exp . SAL exp  (59)
	exp : exp . SAR exp  (60)
	exp : exp . LESS exp  (61)
	exp : exp . LESSEQUAL exp  (62)
	exp : exp . GREATER exp  (63)
	exp : exp . GREATEREQUAL exp  (64)
	exp : exp . EQUALS exp  (65)
	exp : exp . NOTEQUALS exp  (66)
	exp : exp . BITAND exp  (67)
	exp : exp . XOR exp  (68)
	exp : exp . BITOR exp  (69)
	exp : exp . LOGICAND exp  (70)
	exp : exp . LOGICOR exp  (71)
	exp : exp . QUESTION exp COLON exp  (72)

	SEMI  shift 117
	PLUS  shift 73
	MINUS  shift 74
	STAR  shift 75
	SLASH  shift 76
	PERCENT  shift 77
	BITAND  shift 78
	BITOR  shift 79
	XOR  shift 80
	LOGICAND  shift 81
	LOGICOR  shift 82
	SAR  shift 83
	SAL  shift 84
	EQUALS  shift 85
	NOTEQUALS  shift 86
	LESSEQUAL  shift 87
	GREATEREQUAL  shift 88
	LESS  shift 89
	GREATER  shift 90
	QUESTION  shift 91
	.  error


state 65
	exp : lvalue .  (47)

	.  reduce 47


state 66
	exp : MINUS exp .  (53)
	exp : exp . STAR exp  (54)
	exp : exp . SLASH exp  (55)
	exp : exp . PERCENT exp  (56)
	exp : exp . PLUS exp  (57)
	exp : exp . MINUS exp  (58)
	exp : exp . SAL exp  (59)
	exp : exp . SAR exp  (60)
	exp : exp . LESS exp  (61)
	exp : exp . LESSEQUAL exp  (62)
	exp : exp . GREATER exp  (63)
	exp : exp . GREATEREQUAL exp  (64)
	exp : exp . EQUALS exp  (65)
	exp : exp . NOTEQUALS exp  (66)
	exp : exp . BITAND exp  (67)
	exp : exp . XOR exp  (68)
	exp : exp . BITOR exp  (69)
	exp : exp . LOGICAND exp  (70)
	exp : exp . LOGICOR exp  (71)
	exp : exp . QUESTION exp COLON exp  (72)

	.  reduce 53


state 67
	exp : BITNOT exp .  (52)
	exp : exp . STAR exp  (54)
	exp : exp . SLASH exp  (55)
	exp : exp . PERCENT exp  (56)
	exp : exp . PLUS exp  (57)
	exp : exp . MINUS exp  (58)
	exp : exp . SAL exp  (59)
	exp : exp . SAR exp  (60)
	exp : exp . LESS exp  (61)
	exp : exp . LESSEQUAL exp  (62)
	exp : exp . GREATER exp  (63)
	exp : exp . GREATEREQUAL exp  (64)
	exp : exp . EQUALS exp  (65)
	exp : exp . NOTEQUALS exp  (66)
	exp : exp . BITAND exp  (67)
	exp : exp . XOR exp  (68)
	exp : exp . BITOR exp  (69)
	exp : exp . LOGICAND exp  (70)
	exp : exp . LOGICOR exp  (71)
	exp : exp . QUESTION exp COLON exp  (72)

	.  reduce 52


state 68
	exp : LOGICNOT exp .  (51)
	exp : exp . STAR exp  (54)
	exp : exp . SLASH exp  (55)
	exp : exp . PERCENT exp  (56)
	exp : exp . PLUS exp  (57)
	exp : exp . MINUS exp  (58)
	exp : exp . SAL exp  (59)
	exp : exp . SAR exp  (60)
	exp : exp . LESS exp  (61)
	exp : exp . LESSEQUAL exp  (62)
	exp : exp . GREATER exp  (63)
	exp : exp . GREATEREQUAL exp  (64)
	exp : exp . EQUALS exp  (65)
	exp : exp . NOTEQUALS exp  (66)
	exp : exp . BITAND exp  (67)
	exp : exp . XOR exp  (68)
	exp : exp . BITOR exp  (69)
	exp : exp . LOGICAND exp  (70)
	exp : exp . LOGICOR exp  (71)
	exp : exp . QUESTION exp COLON exp  (72)

	.  reduce 51


state 69
	exp : LPAREN exp . RPAREN  (46)
	exp : exp . STAR exp  (54)
	exp : exp . SLASH exp  (55)
	exp : exp . PERCENT exp  (56)
	exp : exp . PLUS exp  (57)
	exp : exp . MINUS exp  (58)
	exp : exp . SAL exp  (59)
	exp : exp . SAR exp  (60)
	exp : exp . LESS exp  (61)
	exp : exp . LESSEQUAL exp  (62)
	exp : exp . GREATER exp  (63)
	exp : exp . GREATEREQUAL exp  (64)
	exp : exp . EQUALS exp  (65)
	exp : exp . NOTEQUALS exp  (66)
	exp : exp . BITAND exp  (67)
	exp : exp . XOR exp  (68)
	exp : exp . BITOR exp  (69)
	exp : exp . LOGICAND exp  (70)
	exp : exp . LOGICOR exp  (71)
	exp : exp . QUESTION exp COLON exp  (72)

	PLUS  shift 73
	MINUS  shift 74
	STAR  shift 75
	SLASH  shift 76
	PERCENT  shift 77
	BITAND  shift 78
	BITOR  shift 79
	XOR  shift 80
	LOGICAND  shift 81
	LOGICOR  shift 82
	SAR  shift 83
	SAL  shift 84
	EQUALS  shift 85
	NOTEQUALS  shift 86
	LESSEQUAL  shift 87
	GREATEREQUAL  shift 88
	LESS  shift 89
	GREATER  shift 90
	QUESTION  shift 91
	RPAREN  shift 118
	.  error


70: shift/reduce conflict (shift 119, reduce 47) on RPAREN
state 70
	lvalue : LPAREN lvalue . RPAREN  (33)
	exp : lvalue .  (47)

	RPAREN  shift 119
	PLUS  reduce 47
	MINUS  reduce 47
	STAR  reduce 47
	SLASH  reduce 47
	PERCENT  reduce 47
	BITAND  reduce 47
	BITOR  reduce 47
	XOR  reduce 47
	LOGICAND  reduce 47
	LOGICOR  reduce 47
	SAR  reduce 47
	SAL  reduce 47
	EQUALS  reduce 47
	NOTEQUALS  reduce 47
	LESSEQUAL  reduce 47
	GREATEREQUAL  reduce 47
	LESS  reduce 47
	GREATER  reduce 47
	QUESTION  reduce 47


state 71
	decl : typ IDENT .  (19)
	decl : typ IDENT . ASSIGN exp  (20)

	ASSIGN  shift 120
	SEMI  reduce 19
	RPAREN  reduce 19


state 72
	block : LBRACE stmts RBRACE .  (18)

	.  reduce 18


state 73
	exp : exp PLUS . exp  (57)

	TRUE  shift 34
	FALSE  shift 35
	DECCONST  shift 36
	HEXCONST  shift 37
	IDENT  shift 63
	MINUS  shift 40
	BITNOT  shift 41
	LOGICNOT  shift 42
	LPAREN  shift 43
	.  error

	exp  goto 121
	lvalue  goto 65
	intconst  goto 53


state 74
	exp : exp MINUS . exp  (58)

	TRUE  shift 34
	FALSE  shift 35
	DECCONST  shift 36
	HEXCONST  shift 37
	IDENT  shift 63
	MINUS  shift 40
	BITNOT  shift 41
	LOGICNOT  shift 42
	LPAREN  shift 43
	.  error

	exp  goto 122
	lvalue  goto 65
	intconst  goto 53


state 75
	exp : exp STAR . exp  (54)

	TRUE  shift 34
	FALSE  shift 35
	DECCONST  shift 36
	HEXCONST  shift 37
	IDENT  shift 63
	MINUS  shift 40
	BITNOT  shift 41
	LOGICNOT  shift 42
	LPAREN  shift 43
	.  error

	exp  goto 123
	lvalue  goto 65
	intconst  goto 53


state 76
	exp : exp SLASH . exp  (55)

	TRUE  shift 34
	FALSE  shift 35
	DECCONST  shift 36
	HEXCONST  shift 37
	IDENT  shift 63
	MINUS  shift 40
	BITNOT  shift 41
	LOGICNOT  shift 42
	LPAREN  shift 43
	.  error

	exp  goto 124
	lvalue  goto 65
	intconst  goto 53


state 77
	exp : exp PERCENT . exp  (56)

	TRUE  shift 34
	FALSE  shift 35
	DECCONST  shift 36
	HEXCONST  shift 37
	IDENT  shift 63
	MINUS  shift 40
	BITNOT  shift 41
	LOGICNOT  shift 42
	LPAREN  shift 43
	.  error

	exp  goto 125
	lvalue  goto 65
	intconst  goto 53


state 78
	exp : exp BITAND . exp  (67)

	TRUE  shift 34
	FALSE  shift 35
	DECCONST  shift 36
	HEXCONST  shift 37
	IDENT  shift 63
	MINUS  shift 40
	BITNOT  shift 41
	LOGICNOT  shift 42
	LPAREN  shift 43
	.  error

	exp  goto 126
	lvalue  goto 65
	intconst  goto 53


state 79
	exp : exp BITOR . exp  (69)

	TRUE  shift 34
	FALSE  shift 35
	DECCONST  shift 36
	HEXCONST  shift 37
	IDENT  shift 63
	MINUS  shift 40
	BITNOT  shift 41
	LOGICNOT  shift 42
	LPAREN  shift 43
	.  error

	exp  goto 127
	lvalue  goto 65
	intconst  goto 53


state 80
	exp : exp XOR . exp  (68)

	TRUE  shift 34
	FALSE  shift 35
	DECCONST  shift 36
	HEXCONST  shift 37
	IDENT  shift 63
	MINUS  shift 40
	BITNOT  shift 41
	LOGICNOT  shift 42
	LPAREN  shift 43
	.  error

	exp  goto 128
	lvalue  goto 65
	intconst  goto 53


state 81
	exp : exp LOGICAND . exp  (70)

	TRUE  shift 34
	FALSE  shift 35
	DECCONST  shift 36
	HEXCONST  shift 37
	IDENT  shift 63
	MINUS  shift 40
	BITNOT  shift 41
	LOGICNOT  shift 42
	LPAREN  shift 43
	.  error

	exp  goto 129
	lvalue  goto 65
	intconst  goto 53


state 82
	exp : exp LOGICOR . exp  (71)

	TRUE  shift 34
	FALSE  shift 35
	DECCONST  shift 36
	HEXCONST  shift 37
	IDENT  shift 63
	MINUS  shift 40
	BITNOT  shift 41
	LOGICNOT  shift 42
	LPAREN  shift 43
	.  error

	exp  goto 130
	lvalue  goto 65
	intconst  goto 53


state 83
	exp : exp SAR . exp  (60)

	TRUE  shift 34
	FALSE  shift 35
	DECCONST  shift 36
	HEXCONST  shift 37
	IDENT  shift 63
	MINUS  shift 40
	BITNOT  shift 41
	LOGICNOT  shift 42
	LPAREN  shift 43
	.  error

	exp  goto 131
	lvalue  goto 65
	intconst  goto 53


state 84
	exp : exp SAL . exp  (59)

	TRUE  shift 34
	FALSE  shift 35
	DECCONST  shift 36
	HEXCONST  shift 37
	IDENT  shift 63
	MINUS  shift 40
	BITNOT  shift 41
	LOGICNOT  shift 42
	LPAREN  shift 43
	.  error

	exp  goto 132
	lvalue  goto 65
	intconst  goto 53


state 85
	exp : exp EQUALS . exp  (65)

	TRUE  shift 34
	FALSE  shift 35
	DECCONST  shift 36
	HEXCONST  shift 37
	IDENT  shift 63
	MINUS  shift 40
	BITNOT  shift 41
	LOGICNOT  shift 42
	LPAREN  shift 43
	.  error

	exp  goto 133
	lvalue  goto 65
	intconst  goto 53


state 86
	exp : exp NOTEQUALS . exp  (66)

	TRUE  shift 34
	FALSE  shift 35
	DECCONST  shift 36
	HEXCONST  shift 37
	IDENT  shift 63
	MINUS  shift 40
	BITNOT  shift 41
	LOGICNOT  shift 42
	LPAREN  shift 43
	.  error

	exp  goto 134
	lvalue  goto 65
	intconst  goto 53


state 87
	exp : exp LESSEQUAL . exp  (62)

	TRUE  shift 34
	FALSE  shift 35
	DECCONST  shift 36
	HEXCONST  shift 37
	IDENT  shift 63
	MINUS  shift 40
	BITNOT  shift 41
	LOGICNOT  shift 42
	LPAREN  shift 43
	.  error

	exp  goto 135
	lvalue  goto 65
	intconst  goto 53


state 88
	exp : exp GREATEREQUAL . exp  (64)

	TRUE  shift 34
	FALSE  shift 35
	DECCONST  shift 36
	HEXCONST  shift 37
	IDENT  shift 63
	MINUS  shift 40
	BITNOT  shift 41
	LOGICNOT  shift 42
	LPAREN  shift 43
	.  error

	exp  goto 136
	lvalue  goto 65
	intconst  goto 53


state 89
	exp : exp LESS . exp  (61)

	TRUE  shift 34
	FALSE  shift 35
	DECCONST  shift 36
	HEXCONST  shift 37
	IDENT  shift 63
	MINUS  shift 40
	BITNOT  shift 41
	LOGICNOT  shift 42
	LPAREN  shift 43
	.  error

	exp  goto 137
	lvalue  goto 65
	intconst  goto 53


state 90
	exp : exp GREATER . exp  (63)

	TRUE  shift 34
	FALSE  shift 35
	DECCONST  shift 36
	HEXCONST  shift 37
	IDENT  shift 63
	MINUS  shift 40
	BITNOT  shift 41
	LOGICNOT  shift 42
	LPAREN  shift 43
	.  error

	exp  goto 138
	lvalue  goto 65
	intconst  goto 53


state 91
	exp : exp QUESTION . exp COLON exp  (72)

	TRUE  shift 34
	FALSE  shift 35
	DECCONST  shift 36
	HEXCONST  shift 37
	IDENT  shift 63
	MINUS  shift 40
	BITNOT  shift 41
	LOGICNOT  shift 42
	LPAREN  shift 43
	.  error

	exp  goto 139
	lvalue  goto 65
	intconst  goto 53


state 92
	stmts : stmt stmts .  (22)

	.  reduce 22


state 93
	stmt : simp SEMI .  (23)

	.  reduce 23


state 94
	postop : PLUSPLUS .  (76)

	.  reduce 76


state 95
	postop : MINUSMINUS .  (77)

	.  reduce 77


state 96
	asop : ASSIGN .  (78)

	.  reduce 78


state 97
	asop : PLUSEQ .  (79)

	.  reduce 79


state 98
	asop : MINUSEQ .  (80)

	.  reduce 80


state 99
	asop : STAREQ .  (81)

	.  reduce 81


state 100
	asop : SLASHEQ .  (82)

	.  reduce 82


state 101
	asop : PERCENTEQ .  (83)

	.  reduce 83


state 102
	asop : BITANDEQ .  (84)

	.  reduce 84


state 103
	asop : BITOREQ .  (85)

	.  reduce 85


state 104
	asop : XOREQ .  (86)

	.  reduce 86


state 105
	asop : SAREQ .  (87)

	.  reduce 87


state 106
	asop : SALEQ .  (88)

	.  reduce 88


state 107
	simp : lvalue asop . exp  (26)

	TRUE  shift 34
	FALSE  shift 35
	DECCONST  shift 36
	HEXCONST  shift 37
	IDENT  shift 63
	MINUS  shift 40
	BITNOT  shift 41
	LOGICNOT  shift 42
	LPAREN  shift 43
	.  error

	exp  goto 140
	lvalue  goto 65
	intconst  goto 53


state 108
	simp : lvalue postop .  (27)

	.  reduce 27


state 109
	param_list_follow : COMMA param param_list_follow .  (10)

	.  reduce 10


state 110
	control : IF LPAREN exp . RPAREN stmt elseopt  (36)
	exp : exp . STAR exp  (54)
	exp : exp . SLASH exp  (55)
	exp : exp . PERCENT exp  (56)
	exp : exp . PLUS exp  (57)
	exp : exp . MINUS exp  (58)
	exp : exp . SAL exp  (59)
	exp : exp . SAR exp  (60)
	exp : exp . LESS exp  (61)
	exp : exp . LESSEQUAL exp  (62)
	exp : exp . GREATER exp  (63)
	exp : exp . GREATEREQUAL exp  (64)
	exp : exp . EQUALS exp  (65)
	exp : exp . NOTEQUALS exp  (66)
	exp : exp . BITAND exp  (67)
	exp : exp . XOR exp  (68)
	exp : exp . BITOR exp  (69)
	exp : exp . LOGICAND exp  (70)
	exp : exp . LOGICOR exp  (71)
	exp : exp . QUESTION exp COLON exp  (72)

	PLUS  shift 73
	MINUS  shift 74
	STAR  shift 75
	SLASH  shift 76
	PERCENT  shift 77
	BITAND  shift 78
	BITOR  shift 79
	XOR  shift 80
	LOGICAND  shift 81
	LOGICOR  shift 82
	SAR  shift 83
	SAL  shift 84
	EQUALS  shift 85
	NOTEQUALS  shift 86
	LESSEQUAL  shift 87
	GREATEREQUAL  shift 88
	LESS  shift 89
	GREATER  shift 90
	QUESTION  shift 91
	RPAREN  shift 141
	.  error


state 111
	control : WHILE LPAREN exp . RPAREN stmt  (37)
	exp : exp . STAR exp  (54)
	exp : exp . SLASH exp  (55)
	exp : exp . PERCENT exp  (56)
	exp : exp . PLUS exp  (57)
	exp : exp . MINUS exp  (58)
	exp : exp . SAL exp  (59)
	exp : exp . SAR exp  (60)
	exp : exp . LESS exp  (61)
	exp : exp . LESSEQUAL exp  (62)
	exp : exp . GREATER exp  (63)
	exp : exp . GREATEREQUAL exp  (64)
	exp : exp . EQUALS exp  (65)
	exp : exp . NOTEQUALS exp  (66)
	exp : exp . BITAND exp  (67)
	exp : exp . XOR exp  (68)
	exp : exp . BITOR exp  (69)
	exp : exp . LOGICAND exp  (70)
	exp : exp . LOGICOR exp  (71)
	exp : exp . QUESTION exp COLON exp  (72)

	PLUS  shift 73
	MINUS  shift 74
	STAR  shift 75
	SLASH  shift 76
	PERCENT  shift 77
	BITAND  shift 78
	BITOR  shift 79
	XOR  shift 80
	LOGICAND  shift 81
	LOGICOR  shift 82
	SAR  shift 83
	SAL  shift 84
	EQUALS  shift 85
	NOTEQUALS  shift 86
	LESSEQUAL  shift 87
	GREATEREQUAL  shift 88
	LESS  shift 89
	GREATER  shift 90
	QUESTION  shift 91
	RPAREN  shift 142
	.  error


state 112
	simpopt : simp .  (31)

	.  reduce 31


state 113
	control : FOR LPAREN simpopt . SEMI exp SEMI simpopt RPAREN stmt  (38)

	SEMI  shift 143
	.  error


state 114
	control : ASSERT LPAREN exp . RPAREN SEMI  (41)
	exp : exp . STAR exp  (54)
	exp : exp . SLASH exp  (55)
	exp : exp . PERCENT exp  (56)
	exp : exp . PLUS exp  (57)
	exp : exp . MINUS exp  (58)
	exp : exp . SAL exp  (59)
	exp : exp . SAR exp  (60)
	exp : exp . LESS exp  (61)
	exp : exp . LESSEQUAL exp  (62)
	exp : exp . GREATER exp  (63)
	exp : exp . GREATEREQUAL exp  (64)
	exp : exp . EQUALS exp  (65)
	exp : exp . NOTEQUALS exp  (66)
	exp : exp . BITAND exp  (67)
	exp : exp . XOR exp  (68)
	exp : exp . BITOR exp  (69)
	exp : exp . LOGICAND exp  (70)
	exp : exp . LOGICOR exp  (71)
	exp : exp . QUESTION exp COLON exp  (72)

	PLUS  shift 73
	MINUS  shift 74
	STAR  shift 75
	SLASH  shift 76
	PERCENT  shift 77
	BITAND  shift 78
	BITOR  shift 79
	XOR  shift 80
	LOGICAND  shift 81
	LOGICOR  shift 82
	SAR  shift 83
	SAL  shift 84
	EQUALS  shift 85
	NOTEQUALS  shift 86
	LESSEQUAL  shift 87
	GREATEREQUAL  shift 88
	LESS  shift 89
	GREATER  shift 90
	QUESTION  shift 91
	RPAREN  shift 144
	.  error


state 115
	arg_list : LPAREN RPAREN .  (44)

	.  reduce 44


state 116
	arg_list : LPAREN exp . arg_list_follow RPAREN  (45)
	exp : exp . STAR exp  (54)
	exp : exp . SLASH exp  (55)
	exp : exp . PERCENT exp  (56)
	exp : exp . PLUS exp  (57)
	exp : exp . MINUS exp  (58)
	exp : exp . SAL exp  (59)
	exp : exp . SAR exp  (60)
	exp : exp . LESS exp  (61)
	exp : exp . LESSEQUAL exp  (62)
	exp : exp . GREATER exp  (63)
	exp : exp . GREATEREQUAL exp  (64)
	exp : exp . EQUALS exp  (65)
	exp : exp . NOTEQUALS exp  (66)
	exp : exp . BITAND exp  (67)
	exp : exp . XOR exp  (68)
	exp : exp . BITOR exp  (69)
	exp : exp . LOGICAND exp  (70)
	exp : exp . LOGICOR exp  (71)
	exp : exp . QUESTION exp COLON exp  (72)
	arg_list_follow : .  (42)

	PLUS  shift 73
	MINUS  shift 74
	STAR  shift 75
	SLASH  shift 76
	PERCENT  shift 77
	BITAND  shift 78
	BITOR  shift 79
	XOR  shift 80
	LOGICAND  shift 81
	LOGICOR  shift 82
	SAR  shift 83
	SAL  shift 84
	EQUALS  shift 85
	NOTEQUALS  shift 86
	LESSEQUAL  shift 87
	GREATEREQUAL  shift 88
	LESS  shift 89
	GREATER  shift 90
	QUESTION  shift 91
	COMMA  shift 145
	RPAREN  reduce 42

	arg_list_follow  goto 146


state 117
	control : RETURN exp SEMI .  (39)

	.  reduce 39


state 118
	exp : LPAREN exp RPAREN .  (46)

	.  reduce 46


state 119
	lvalue : LPAREN lvalue RPAREN .  (33)

	.  reduce 33


state 120
	decl : typ IDENT ASSIGN . exp  (20)

	TRUE  shift 34
	FALSE  shift 35
	DECCONST  shift 36
	HEXCONST  shift 37
	IDENT  shift 63
	MINUS  shift 40
	BITNOT  shift 41
	LOGICNOT  shift 42
	LPAREN  shift 43
	.  error

	exp  goto 147
	lvalue  goto 65
	intconst  goto 53


state 121
	exp : exp . STAR exp  (54)
	exp : exp . SLASH exp  (55)
	exp : exp . PERCENT exp  (56)
	exp : exp . PLUS exp  (57)
	exp : exp PLUS exp .  (57)
	exp : exp . MINUS exp  (58)
	exp : exp . SAL exp  (59)
	exp : exp . SAR exp  (60)
	exp : exp . LESS exp  (61)
	exp : exp . LESSEQUAL exp  (62)
	exp : exp . GREATER exp  (63)
	exp : exp . GREATEREQUAL exp  (64)
	exp : exp . EQUALS exp  (65)
	exp : exp . NOTEQUALS exp  (66)
	exp : exp . BITAND exp  (67)
	exp : exp . XOR exp  (68)
	exp : exp . BITOR exp  (69)
	exp : exp . LOGICAND exp  (70)
	exp : exp . LOGICOR exp  (71)
	exp : exp . QUESTION exp COLON exp  (72)

	STAR  shift 75
	SLASH  shift 76
	PERCENT  shift 77
	SEMI  reduce 57
	PLUS  reduce 57
	MINUS  reduce 57
	BITAND  reduce 57
	BITOR  reduce 57
	XOR  reduce 57
	LOGICAND  reduce 57
	LOGICOR  reduce 57
	SAR  reduce 57
	SAL  reduce 57
	EQUALS  reduce 57
	NOTEQUALS  reduce 57
	LESSEQUAL  reduce 57
	GREATEREQUAL  reduce 57
	LESS  reduce 57
	GREATER  reduce 57
	QUESTION  reduce 57
	COLON  reduce 57
	RPAREN  reduce 57
	COMMA  reduce 57


state 122
	exp : exp . STAR exp  (54)
	exp : exp . SLASH exp  (55)
	exp : exp . PERCENT exp  (56)
	exp : exp . PLUS exp  (57)
	exp : exp . MINUS exp  (58)
	exp : exp MINUS exp .  (58)
	exp : exp . SAL exp  (59)
	exp : exp . SAR exp  (60)
	exp : exp . LESS exp  (61)
	exp : exp . LESSEQUAL exp  (62)
	exp : exp . GREATER exp  (63)
	exp : exp . GREATEREQUAL exp  (64)
	exp : exp . EQUALS exp  (65)
	exp : exp . NOTEQUALS exp  (66)
	exp : exp . BITAND exp  (67)
	exp : exp . XOR exp  (68)
	exp : exp . BITOR exp  (69)
	exp : exp . LOGICAND exp  (70)
	exp : exp . LOGICOR exp  (71)
	exp : exp . QUESTION exp COLON exp  (72)

	STAR  shift 75
	SLASH  shift 76
	PERCENT  shift 77
	SEMI  reduce 58
	PLUS  reduce 58
	MINUS  reduce 58
	BITAND  reduce 58
	BITOR  reduce 58
	XOR  reduce 58
	LOGICAND  reduce 58
	LOGICOR  reduce 58
	SAR  reduce 58
	SAL  reduce 58
	EQUALS  reduce 58
	NOTEQUALS  reduce 58
	LESSEQUAL  reduce 58
	GREATEREQUAL  reduce 58
	LESS  reduce 58
	GREATER  reduce 58
	QUESTION  reduce 58
	COLON  reduce 58
	RPAREN  reduce 58
	COMMA  reduce 58


state 123
	exp : exp . STAR exp  (54)
	exp : exp STAR exp .  (54)
	exp : exp . SLASH exp  (55)
	exp : exp . PERCENT exp  (56)
	exp : exp . PLUS exp  (57)
	exp : exp . MINUS exp  (58)
	exp : exp . SAL exp  (59)
	exp : exp . SAR exp  (60)
	exp : exp . LESS exp  (61)
	exp : exp . LESSEQUAL exp  (62)
	exp : exp . GREATER exp  (63)
	exp : exp . GREATEREQUAL exp  (64)
	exp : exp . EQUALS exp  (65)
	exp : exp . NOTEQUALS exp  (66)
	exp : exp . BITAND exp  (67)
	exp : exp . XOR exp  (68)
	exp : exp . BITOR exp  (69)
	exp : exp . LOGICAND exp  (70)
	exp : exp . LOGICOR exp  (71)
	exp : exp . QUESTION exp COLON exp  (72)

	.  reduce 54


state 124
	exp : exp . STAR exp  (54)
	exp : exp . SLASH exp  (55)
	exp : exp SLASH exp .  (55)
	exp : exp . PERCENT exp  (56)
	exp : exp . PLUS exp  (57)
	exp : exp . MINUS exp  (58)
	exp : exp . SAL exp  (59)
	exp : exp . SAR exp  (60)
	exp : exp . LESS exp  (61)
	exp : exp . LESSEQUAL exp  (62)
	exp : exp . GREATER exp  (63)
	exp : exp . GREATEREQUAL exp  (64)
	exp : exp . EQUALS exp  (65)
	exp : exp . NOTEQUALS exp  (66)
	exp : exp . BITAND exp  (67)
	exp : exp . XOR exp  (68)
	exp : exp . BITOR exp  (69)
	exp : exp . LOGICAND exp  (70)
	exp : exp . LOGICOR exp  (71)
	exp : exp . QUESTION exp COLON exp  (72)

	.  reduce 55


state 125
	exp : exp . STAR exp  (54)
	exp : exp . SLASH exp  (55)
	exp : exp . PERCENT exp  (56)
	exp : exp PERCENT exp .  (56)
	exp : exp . PLUS exp  (57)
	exp : exp . MINUS exp  (58)
	exp : exp . SAL exp  (59)
	exp : exp . SAR exp  (60)
	exp : exp . LESS exp  (61)
	exp : exp . LESSEQUAL exp  (62)
	exp : exp . GREATER exp  (63)
	exp : exp . GREATEREQUAL exp  (64)
	exp : exp . EQUALS exp  (65)
	exp : exp . NOTEQUALS exp  (66)
	exp : exp . BITAND exp  (67)
	exp : exp . XOR exp  (68)
	exp : exp . BITOR exp  (69)
	exp : exp . LOGICAND exp  (70)
	exp : exp . LOGICOR exp  (71)
	exp : exp . QUESTION exp COLON exp  (72)

	.  reduce 56


state 126
	exp : exp . STAR exp  (54)
	exp : exp . SLASH exp  (55)
	exp : exp . PERCENT exp  (56)
	exp : exp . PLUS exp  (57)
	exp : exp . MINUS exp  (58)
	exp : exp . SAL exp  (59)
	exp : exp . SAR exp  (60)
	exp : exp . LESS exp  (61)
	exp : exp . LESSEQUAL exp  (62)
	exp : exp . GREATER exp  (63)
	exp : exp . GREATEREQUAL exp  (64)
	exp : exp . EQUALS exp  (65)
	exp : exp . NOTEQUALS exp  (66)
	exp : exp . BITAND exp  (67)
	exp : exp BITAND exp .  (67)
	exp : exp . XOR exp  (68)
	exp : exp . BITOR exp  (69)
	exp : exp . LOGICAND exp  (70)
	exp : exp . LOGICOR exp  (71)
	exp : exp . QUESTION exp COLON exp  (72)

	PLUS  shift 73
	MINUS  shift 74
	STAR  shift 75
	SLASH  shift 76
	PERCENT  shift 77
	SAR  shift 83
	SAL  shift 84
	EQUALS  shift 85
	NOTEQUALS  shift 86
	LESSEQUAL  shift 87
	GREATEREQUAL  shift 88
	LESS  shift 89
	GREATER  shift 90
	SEMI  reduce 67
	BITAND  reduce 67
	BITOR  reduce 67
	XOR  reduce 67
	LOGICAND  reduce 67
	LOGICOR  reduce 67
	QUESTION  reduce 67
	COLON  reduce 67
	RPAREN  reduce 67
	COMMA  reduce 67


state 127
	exp : exp . STAR exp  (54)
	exp : exp . SLASH exp  (55)
	exp : exp . PERCENT exp  (56)
	exp : exp . PLUS exp  (57)
	exp : exp . MINUS exp  (58)
	exp : exp . SAL exp  (59)
	exp : exp . SAR exp  (60)
	exp : exp . LESS exp  (61)
	exp : exp . LESSEQUAL exp  (62)
	exp : exp . GREATER exp  (63)
	exp : exp . GREATEREQUAL exp  (64)
	exp : exp . EQUALS exp  (65)
	exp : exp . NOTEQUALS exp  (66)
	exp : exp . BITAND exp  (67)
	exp : exp . XOR exp  (68)
	exp : exp . BITOR exp  (69)
	exp : exp BITOR exp .  (69)
	exp : exp . LOGICAND exp  (70)
	exp : exp . LOGICOR exp  (71)
	exp : exp . QUESTION exp COLON exp  (72)

	PLUS  shift 73
	MINUS  shift 74
	STAR  shift 75
	SLASH  shift 76
	PERCENT  shift 77
	BITAND  shift 78
	XOR  shift 80
	SAR  shift 83
	SAL  shift 84
	EQUALS  shift 85
	NOTEQUALS  shift 86
	LESSEQUAL  shift 87
	GREATEREQUAL  shift 88
	LESS  shift 89
	GREATER  shift 90
	SEMI  reduce 69
	BITOR  reduce 69
	LOGICAND  reduce 69
	LOGICOR  reduce 69
	QUESTION  reduce 69
	COLON  reduce 69
	RPAREN  reduce 69
	COMMA  reduce 69


state 128
	exp : exp . STAR exp  (54)
	exp : exp . SLASH exp  (55)
	exp : exp . PERCENT exp  (56)
	exp : exp . PLUS exp  (57)
	exp : exp . MINUS exp  (58)
	exp : exp . SAL exp  (59)
	exp : exp . SAR exp  (60)
	exp : exp . LESS exp  (61)
	exp : exp . LESSEQUAL exp  (62)
	exp : exp . GREATER exp  (63)
	exp : exp . GREATEREQUAL exp  (64)
	exp : exp . EQUALS exp  (65)
	exp : exp . NOTEQUALS exp  (66)
	exp : exp . BITAND exp  (67)
	exp : exp . XOR exp  (68)
	exp : exp XOR exp .  (68)
	exp : exp . BITOR exp  (69)
	exp : exp . LOGICAND exp  (70)
	exp : exp . LOGICOR exp  (71)
	exp : exp . QUESTION exp COLON exp  (72)

	PLUS  shift 73
	MINUS  shift 74
	STAR  shift 75
	SLASH  shift 76
	PERCENT  shift 77
	BITAND  shift 78
	SAR  shift 83
	SAL  shift 84
	EQUALS  shift 85
	NOTEQUALS  shift 86
	LESSEQUAL  shift 87
	GREATEREQUAL  shift 88
	LESS  shift 89
	GREATER  shift 90
	SEMI  reduce 68
	BITOR  reduce 68
	XOR  reduce 68
	LOGICAND  reduce 68
	LOGICOR  reduce 68
	QUESTION  reduce 68
	COLON  reduce 68
	RPAREN  reduce 68
	COMMA  reduce 68


state 129
	exp : exp . STAR exp  (54)
	exp : exp . SLASH exp  (55)
	exp : exp . PERCENT exp  (56)
	exp : exp . PLUS exp  (57)
	exp : exp . MINUS exp  (58)
	exp : exp . SAL exp  (59)
	exp : exp . SAR exp  (60)
	exp : exp . LESS exp  (61)
	exp : exp . LESSEQUAL exp  (62)
	exp : exp . GREATER exp  (63)
	exp : exp . GREATEREQUAL exp  (64)
	exp : exp . EQUALS exp  (65)
	exp : exp . NOTEQUALS exp  (66)
	exp : exp . BITAND exp  (67)
	exp : exp . XOR exp  (68)
	exp : exp . BITOR exp  (69)
	exp : exp . LOGICAND exp  (70)
	exp : exp LOGICAND exp .  (70)
	exp : exp . LOGICOR exp  (71)
	exp : exp . QUESTION exp COLON exp  (72)

	PLUS  shift 73
	MINUS  shift 74
	STAR  shift 75
	SLASH  shift 76
	PERCENT  shift 77
	BITAND  shift 78
	BITOR  shift 79
	XOR  shift 80
	SAR  shift 83
	SAL  shift 84
	EQUALS  shift 85
	NOTEQUALS  shift 86
	LESSEQUAL  shift 87
	GREATEREQUAL  shift 88
	LESS  shift 89
	GREATER  shift 90
	SEMI  reduce 70
	LOGICAND  reduce 70
	LOGICOR  reduce 70
	QUESTION  reduce 70
	COLON  reduce 70
	RPAREN  reduce 70
	COMMA  reduce 70


state 130
	exp : exp . STAR exp  (54)
	exp : exp . SLASH exp  (55)
	exp : exp . PERCENT exp  (56)
	exp : exp . PLUS exp  (57)
	exp : exp . MINUS exp  (58)
	exp : exp . SAL exp  (59)
	exp : exp . SAR exp  (60)
	exp : exp . LESS exp  (61)
	exp : exp . LESSEQUAL exp  (62)
	exp : exp . GREATER exp  (63)
	exp : exp . GREATEREQUAL exp  (64)
	exp : exp . EQUALS exp  (65)
	exp : exp . NOTEQUALS exp  (66)
	exp : exp . BITAND exp  (67)
	exp : exp . XOR exp  (68)
	exp : exp . BITOR exp  (69)
	exp : exp . LOGICAND exp  (70)
	exp : exp . LOGICOR exp  (71)
	exp : exp LOGICOR exp .  (71)
	exp : exp . QUESTION exp COLON exp  (72)

	PLUS  shift 73
	MINUS  shift 74
	STAR  shift 75
	SLASH  shift 76
	PERCENT  shift 77
	BITAND  shift 78
	BITOR  shift 79
	XOR  shift 80
	LOGICAND  shift 81
	SAR  shift 83
	SAL  shift 84
	EQUALS  shift 85
	NOTEQUALS  shift 86
	LESSEQUAL  shift 87
	GREATEREQUAL  shift 88
	LESS  shift 89
	GREATER  shift 90
	SEMI  reduce 71
	LOGICOR  reduce 71
	QUESTION  reduce 71
	COLON  reduce 71
	RPAREN  reduce 71
	COMMA  reduce 71


state 131
	exp : exp . STAR exp  (54)
	exp : exp . SLASH exp  (55)
	exp : exp . PERCENT exp  (56)
	exp : exp . PLUS exp  (57)
	exp : exp . MINUS exp  (58)
	exp : exp . SAL exp  (59)
	exp : exp . SAR exp  (60)
	exp : exp SAR exp .  (60)
	exp : exp . LESS exp  (61)
	exp : exp . LESSEQUAL exp  (62)
	exp : exp . GREATER exp  (63)
	exp : exp . GREATEREQUAL exp  (64)
	exp : exp . EQUALS exp  (65)
	exp : exp . NOTEQUALS exp  (66)
	exp : exp . BITAND exp  (67)
	exp : exp . XOR exp  (68)
	exp : exp . BITOR exp  (69)
	exp : exp . LOGICAND exp  (70)
	exp : exp . LOGICOR exp  (71)
	exp : exp . QUESTION exp COLON exp  (72)

	PLUS  shift 73
	MINUS  shift 74
	STAR  shift 75
	SLASH  shift 76
	PERCENT  shift 77
	SEMI  reduce 60
	BITAND  reduce 60
	BITOR  reduce 60
	XOR  reduce 60
	LOGICAND  reduce 60
	LOGICOR  reduce 60
	SAR  reduce 60
	SAL  reduce 60
	EQUALS  reduce 60
	NOTEQUALS  reduce 60
	LESSEQUAL  reduce 60
	GREATEREQUAL  reduce 60
	LESS  reduce 60
	GREATER  reduce 60
	QUESTION  reduce 60
	COLON  reduce 60
	RPAREN  reduce 60
	COMMA  reduce 60


state 132
	exp : exp . STAR exp  (54)
	exp : exp . SLASH exp  (55)
	exp : exp . PERCENT exp  (56)
	exp : exp . PLUS exp  (57)
	exp : exp . MINUS exp  (58)
	exp : exp . SAL exp  (59)
	exp : exp SAL exp .  (59)
	exp : exp . SAR exp  (60)
	exp : exp . LESS exp  (61)
	exp : exp . LESSEQUAL exp  (62)
	exp : exp . GREATER exp  (63)
	exp : exp . GREATEREQUAL exp  (64)
	exp : exp . EQUALS exp  (65)
	exp : exp . NOTEQUALS exp  (66)
	exp : exp . BITAND exp  (67)
	exp : exp . XOR exp  (68)
	exp : exp . BITOR exp  (69)
	exp : exp . LOGICAND exp  (70)
	exp : exp . LOGICOR exp  (71)
	exp : exp . QUESTION exp COLON exp  (72)

	PLUS  shift 73
	MINUS  shift 74
	STAR  shift 75
	SLASH  shift 76
	PERCENT  shift 77
	SEMI  reduce 59
	BITAND  reduce 59
	BITOR  reduce 59
	XOR  reduce 59
	LOGICAND  reduce 59
	LOGICOR  reduce 59
	SAR  reduce 59
	SAL  reduce 59
	EQUALS  reduce 59
	NOTEQUALS  reduce 59
	LESSEQUAL  reduce 59
	GREATEREQUAL  reduce 59
	LESS  reduce 59
	GREATER  reduce 59
	QUESTION  reduce 59
	COLON  reduce 59
	RPAREN  reduce 59
	COMMA  reduce 59


state 133
	exp : exp . STAR exp  (54)
	exp : exp . SLASH exp  (55)
	exp : exp . PERCENT exp  (56)
	exp : exp . PLUS exp  (57)
	exp : exp . MINUS exp  (58)
	exp : exp . SAL exp  (59)
	exp : exp . SAR exp  (60)
	exp : exp . LESS exp  (61)
	exp : exp . LESSEQUAL exp  (62)
	exp : exp . GREATER exp  (63)
	exp : exp . GREATEREQUAL exp  (64)
	exp : exp . EQUALS exp  (65)
	exp : exp EQUALS exp .  (65)
	exp : exp . NOTEQUALS exp  (66)
	exp : exp . BITAND exp  (67)
	exp : exp . XOR exp  (68)
	exp : exp . BITOR exp  (69)
	exp : exp . LOGICAND exp  (70)
	exp : exp . LOGICOR exp  (71)
	exp : exp . QUESTION exp COLON exp  (72)

	PLUS  shift 73
	MINUS  shift 74
	STAR  shift 75
	SLASH  shift 76
	PERCENT  shift 77
	SAR  shift 83
	SAL  shift 84
	LESSEQUAL  shift 87
	GREATEREQUAL  shift 88
	LESS  shift 89
	GREATER  shift 90
	SEMI  reduce 65
	BITAND  reduce 65
	BITOR  reduce 65
	XOR  reduce 65
	LOGICAND  reduce 65
	LOGICOR  reduce 65
	EQUALS  reduce 65
	NOTEQUALS  reduce 65
	QUESTION  reduce 65
	COLON  reduce 65
	RPAREN  reduce 65
	COMMA  reduce 65


state 134
	exp : exp . STAR exp  (54)
	exp : exp . SLASH exp  (55)
	exp : exp . PERCENT exp  (56)
	exp : exp . PLUS exp  (57)
	exp : exp . MINUS exp  (58)
	exp : exp . SAL exp  (59)
	exp : exp . SAR exp  (60)
	exp : exp . LESS exp  (61)
	exp : exp . LESSEQUAL exp  (62)
	exp : exp . GREATER exp  (63)
	exp : exp . GREATEREQUAL exp  (64)
	exp : exp . EQUALS exp  (65)
	exp : exp . NOTEQUALS exp  (66)
	exp : exp NOTEQUALS exp .  (66)
	exp : exp . BITAND exp  (67)
	exp : exp . XOR exp  (68)
	exp : exp . BITOR exp  (69)
	exp : exp . LOGICAND exp  (70)
	exp : exp . LOGICOR exp  (71)
	exp : exp . QUESTION exp COLON exp  (72)

	PLUS  shift 73
	MINUS  shift 74
	STAR  shift 75
	SLASH  shift 76
	PERCENT  shift 77
	SAR  shift 83
	SAL  shift 84
	LESSEQUAL  shift 87
	GREATEREQUAL  shift 88
	LESS  shift 89
	GREATER  shift 90
	SEMI  reduce 66
	BITAND  reduce 66
	BITOR  reduce 66
	XOR  reduce 66
	LOGICAND  reduce 66
	LOGICOR  reduce 66
	EQUALS  reduce 66
	NOTEQUALS  reduce 66
	QUESTION  reduce 66
	COLON  reduce 66
	RPAREN  reduce 66
	COMMA  reduce 66


state 135
	exp : exp . STAR exp  (54)
	exp : exp . SLASH exp  (55)
	exp : exp . PERCENT exp  (56)
	exp : exp . PLUS exp  (57)
	exp : exp . MINUS exp  (58)
	exp : exp . SAL exp  (59)
	exp : exp . SAR exp  (60)
	exp : exp . LESS exp  (61)
	exp : exp . LESSEQUAL exp  (62)
	exp : exp LESSEQUAL exp .  (62)
	exp : exp . GREATER exp  (63)
	exp : exp . GREATEREQUAL exp  (64)
	exp : exp . EQUALS exp  (65)
	exp : exp . NOTEQUALS exp  (66)
	exp : exp . BITAND exp  (67)
	exp : exp . XOR exp  (68)
	exp : exp . BITOR exp  (69)
	exp : exp . LOGICAND exp  (70)
	exp : exp . LOGICOR exp  (71)
	exp : exp . QUESTION exp COLON exp  (72)

	PLUS  shift 73
	MINUS  shift 74
	STAR  shift 75
	SLASH  shift 76
	PERCENT  shift 77
	SAR  shift 83
	SAL  shift 84
	SEMI  reduce 62
	BITAND  reduce 62
	BITOR  reduce 62
	XOR  reduce 62
	LOGICAND  reduce 62
	LOGICOR  reduce 62
	EQUALS  reduce 62
	NOTEQUALS  reduce 62
	LESSEQUAL  reduce 62
	GREATEREQUAL  reduce 62
	LESS  reduce 62
	GREATER  reduce 62
	QUESTION  reduce 62
	COLON  reduce 62
	RPAREN  reduce 62
	COMMA  reduce 62


state 136
	exp : exp . STAR exp  (54)
	exp : exp . SLASH exp  (55)
	exp : exp . PERCENT exp  (56)
	exp : exp . PLUS exp  (57)
	exp : exp . MINUS exp  (58)
	exp : exp . SAL exp  (59)
	exp : exp . SAR exp  (60)
	exp : exp . LESS exp  (61)
	exp : exp . LESSEQUAL exp  (62)
	exp : exp . GREATER exp  (63)
	exp : exp . GREATEREQUAL exp  (64)
	exp : exp GREATEREQUAL exp .  (64)
	exp : exp . EQUALS exp  (65)
	exp : exp . NOTEQUALS exp  (66)
	exp : exp . BITAND exp  (67)
	exp : exp . XOR exp  (68)
	exp : exp . BITOR exp  (69)
	exp : exp . LOGICAND exp  (70)
	exp : exp . LOGICOR exp  (71)
	exp : exp . QUESTION exp COLON exp  (72)

	PLUS  shift 73
	MINUS  shift 74
	STAR  shift 75
	SLASH  shift 76
	PERCENT  shift 77
	SAR  shift 83
	SAL  shift 84
	SEMI  reduce 64
	BITAND  reduce 64
	BITOR  reduce 64
	XOR  reduce 64
	LOGICAND  reduce 64
	LOGICOR  reduce 64
	EQUALS  reduce 64
	NOTEQUALS  reduce 64
	LESSEQUAL  reduce 64
	GREATEREQUAL  reduce 64
	LESS  reduce 64
	GREATER  reduce 64
	QUESTION  reduce 64
	COLON  reduce 64
	RPAREN  reduce 64
	COMMA  reduce 64


state 137
	exp : exp . STAR exp  (54)
	exp : exp . SLASH exp  (55)
	exp : exp . PERCENT exp  (56)
	exp : exp . PLUS exp  (57)
	exp : exp . MINUS exp  (58)
	exp : exp . SAL exp  (59)
	exp : exp . SAR exp  (60)
	exp : exp . LESS exp  (61)
	exp : exp LESS exp .  (61)
	exp : exp . LESSEQUAL exp  (62)
	exp : exp . GREATER exp  (63)
	exp : exp . GREATEREQUAL exp  (64)
	exp : exp . EQUALS exp  (65)
	exp : exp . NOTEQUALS exp  (66)
	exp : exp . BITAND exp  (67)
	exp : exp . XOR exp  (68)
	exp : exp . BITOR exp  (69)
	exp : exp . LOGICAND exp  (70)
	exp : exp . LOGICOR exp  (71)
	exp : exp . QUESTION exp COLON exp  (72)

	PLUS  shift 73
	MINUS  shift 74
	STAR  shift 75
	SLASH  shift 76
	PERCENT  shift 77
	SAR  shift 83
	SAL  shift 84
	SEMI  reduce 61
	BITAND  reduce 61
	BITOR  reduce 61
	XOR  reduce 61
	LOGICAND  reduce 61
	LOGICOR  reduce 61
	EQUALS  reduce 61
	NOTEQUALS  reduce 61
	LESSEQUAL  reduce 61
	GREATEREQUAL  reduce 61
	LESS  reduce 61
	GREATER  reduce 61
	QUESTION  reduce 61
	COLON  reduce 61
	RPAREN  reduce 61
	COMMA  reduce 61


state 138
	exp : exp . STAR exp  (54)
	exp : exp . SLASH exp  (55)
	exp : exp . PERCENT exp  (56)
	exp : exp . PLUS exp  (57)
	exp : exp . MINUS exp  (58)
	exp : exp . SAL exp  (59)
	exp : exp . SAR exp  (60)
	exp : exp . LESS exp  (61)
	exp : exp . LESSEQUAL exp  (62)
	exp : exp . GREATER exp  (63)
	exp : exp GREATER exp .  (63)
	exp : exp . GREATEREQUAL exp  (64)
	exp : exp . EQUALS exp  (65)
	exp : exp . NOTEQUALS exp  (66)
	exp : exp . BITAND exp  (67)
	exp : exp . XOR exp  (68)
	exp : exp . BITOR exp  (69)
	exp : exp . LOGICAND exp  (70)
	exp : exp . LOGICOR exp  (71)
	exp : exp . QUESTION exp COLON exp  (72)

	PLUS  shift 73
	MINUS  shift 74
	STAR  shift 75
	SLASH  shift 76
	PERCENT  shift 77
	SAR  shift 83
	SAL  shift 84
	SEMI  reduce 63
	BITAND  reduce 63
	BITOR  reduce 63
	XOR  reduce 63
	LOGICAND  reduce 63
	LOGICOR  reduce 63
	EQUALS  reduce 63
	NOTEQUALS  reduce 63
	LESSEQUAL  reduce 63
	GREATEREQUAL  reduce 63
	LESS  reduce 63
	GREATER  reduce 63
	QUESTION  reduce 63
	COLON  reduce 63
	RPAREN  reduce 63
	COMMA  reduce 63


state 139
	exp : exp . STAR exp  (54)
	exp : exp . SLASH exp  (55)
	exp : exp . PERCENT exp  (56)
	exp : exp . PLUS exp  (57)
	exp : exp . MINUS exp  (58)
	exp : exp . SAL exp  (59)
	exp : exp . SAR exp  (60)
	exp : exp . LESS exp  (61)
	exp : exp . LESSEQUAL exp  (62)
	exp : exp . GREATER exp  (63)
	exp : exp . GREATEREQUAL exp  (64)
	exp : exp . EQUALS exp  (65)
	exp : exp . NOTEQUALS exp  (66)
	exp : exp . BITAND exp  (67)
	exp : exp . XOR exp  (68)
	exp : exp . BITOR exp  (69)
	exp : exp . LOGICAND exp  (70)
	exp : exp . LOGICOR exp  (71)
	exp : exp . QUESTION exp COLON exp  (72)
	exp : exp QUESTION exp . COLON exp  (72)

	PLUS  shift 73
	MINUS  shift 74
	STAR  shift 75
	SLASH  shift 76
	PERCENT  shift 77
	BITAND  shift 78
	BITOR  shift 79
	XOR  shift 80
	LOGICAND  shift 81
	LOGICOR  shift 82
	SAR  shift 83
	SAL  shift 84
	EQUALS  shift 85
	NOTEQUALS  shift 86
	LESSEQUAL  shift 87
	GREATEREQUAL  shift 88
	LESS  shift 89
	GREATER  shift 90
	QUESTION  shift 91
	COLON  shift 148
	.  error


state 140
	simp : lvalue asop exp .  (26)
	exp : exp . STAR exp  (54)
	exp : exp . SLASH exp  (55)
	exp : exp . PERCENT exp  (56)
	exp : exp . PLUS exp  (57)
	exp : exp . MINUS exp  (58)
	exp : exp . SAL exp  (59)
	exp : exp . SAR exp  (60)
	exp : exp . LESS exp  (61)
	exp : exp . LESSEQUAL exp  (62)
	exp : exp . GREATER exp  (63)
	exp : exp . GREATEREQUAL exp  (64)
	exp : exp . EQUALS exp  (65)
	exp : exp . NOTEQUALS exp  (66)
	exp : exp . BITAND exp  (67)
	exp : exp . XOR exp  (68)
	exp : exp . BITOR exp  (69)
	exp : exp . LOGICAND exp  (70)
	exp : exp . LOGICOR exp  (71)
	exp : exp . QUESTION exp COLON exp  (72)

	PLUS  shift 73
	MINUS  shift 74
	STAR  shift 75
	SLASH  shift 76
	PERCENT  shift 77
	BITAND  shift 78
	BITOR  shift 79
	XOR  shift 80
	LOGICAND  shift 81
	LOGICOR  shift 82
	SAR  shift 83
	SAL  shift 84
	EQUALS  shift 85
	NOTEQUALS  shift 86
	LESSEQUAL  shift 87
	GREATEREQUAL  shift 88
	LESS  shift 89
	GREATER  shift 90
	QUESTION  shift 91
	SEMI  reduce 26
	RPAREN  reduce 26


state 141
	control : IF LPAREN exp RPAREN . stmt elseopt  (36)

	IF  shift 30
	WHILE  shift 31
	FOR  shift 32
	ASSERT  shift 33
	TRUE  shift 34
	FALSE  shift 35
	BOOL  shift 4
	VOID  shift 5
	DECCONST  shift 36
	HEXCONST  shift 37
	IDENT  shift 38
	RETURN  shift 39
	INT  shift 7
	MINUS  shift 40
	BITNOT  shift 41
	LOGICNOT  shift 42
	LBRACE  shift 25
	LPAREN  shift 43
	.  error

	typ  goto 44
	block  goto 45
	decl  goto 47
	exp  goto 48
	stmt  goto 149
	simp  goto 50
	control  goto 51
	lvalue  goto 52
	intconst  goto 53


state 142
	control : WHILE LPAREN exp RPAREN . stmt  (37)

	IF  shift 30
	WHILE  shift 31
	FOR  shift 32
	ASSERT  shift 33
	TRUE  shift 34
	FALSE  shift 35
	BOOL  shift 4
	VOID  shift 5
	DECCONST  shift 36
	HEXCONST  shift 37
	IDENT  shift 38
	RETURN  shift 39
	INT  shift 7
	MINUS  shift 40
	BITNOT  shift 41
	LOGICNOT  shift 42
	LBRACE  shift 25
	LPAREN  shift 43
	.  error

	typ  goto 44
	block  goto 45
	decl  goto 47
	exp  goto 48
	stmt  goto 150
	simp  goto 50
	control  goto 51
	lvalue  goto 52
	intconst  goto 53


state 143
	control : FOR LPAREN simpopt SEMI . exp SEMI simpopt RPAREN stmt  (38)

	TRUE  shift 34
	FALSE  shift 35
	DECCONST  shift 36
	HEXCONST  shift 37
	IDENT  shift 63
	MINUS  shift 40
	BITNOT  shift 41
	LOGICNOT  shift 42
	LPAREN  shift 43
	.  error

	exp  goto 151
	lvalue  goto 65
	intconst  goto 53


state 144
	control : ASSERT LPAREN exp RPAREN . SEMI  (41)

	SEMI  shift 152
	.  error


state 145
	arg_list_follow : COMMA . exp arg_list_follow  (43)

	TRUE  shift 34
	FALSE  shift 35
	DECCONST  shift 36
	HEXCONST  shift 37
	IDENT  shift 63
	MINUS  shift 40
	BITNOT  shift 41
	LOGICNOT  shift 42
	LPAREN  shift 43
	.  error

	exp  goto 153
	lvalue  goto 65
	intconst  goto 53


state 146
	arg_list : LPAREN exp arg_list_follow . RPAREN  (45)

	RPAREN  shift 154
	.  error


state 147
	decl : typ IDENT ASSIGN exp .  (20)
	exp : exp . STAR exp  (54)
	exp : exp . SLASH exp  (55)
	exp : exp . PERCENT exp  (56)
	exp : exp . PLUS exp  (57)
	exp : exp . MINUS exp  (58)
	exp : exp . SAL exp  (59)
	exp : exp . SAR exp  (60)
	exp : exp . LESS exp  (61)
	exp : exp . LESSEQUAL exp  (62)
	exp : exp . GREATER exp  (63)
	exp : exp . GREATEREQUAL exp  (64)
	exp : exp . EQUALS exp  (65)
	exp : exp . NOTEQUALS exp  (66)
	exp : exp . BITAND exp  (67)
	exp : exp . XOR exp  (68)
	exp : exp . BITOR exp  (69)
	exp : exp . LOGICAND exp  (70)
	exp : exp . LOGICOR exp  (71)
	exp : exp . QUESTION exp COLON exp  (72)

	PLUS  shift 73
	MINUS  shift 74
	STAR  shift 75
	SLASH  shift 76
	PERCENT  shift 77
	BITAND  shift 78
	BITOR  shift 79
	XOR  shift 80
	LOGICAND  shift 81
	LOGICOR  shift 82
	SAR  shift 83
	SAL  shift 84
	EQUALS  shift 85
	NOTEQUALS  shift 86
	LESSEQUAL  shift 87
	GREATEREQUAL  shift 88
	LESS  shift 89
	GREATER  shift 90
	QUESTION  shift 91
	SEMI  reduce 20
	RPAREN  reduce 20


state 148
	exp : exp QUESTION exp COLON . exp  (72)

	TRUE  shift 34
	FALSE  shift 35
	DECCONST  shift 36
	HEXCONST  shift 37
	IDENT  shift 63
	MINUS  shift 40
	BITNOT  shift 41
	LOGICNOT  shift 42
	LPAREN  shift 43
	.  error

	exp  goto 155
	lvalue  goto 65
	intconst  goto 53


149: shift/reduce conflict (shift 156, reduce 34) on ELSE
state 149
	control : IF LPAREN exp RPAREN stmt . elseopt  (36)
	elseopt : .  (34)

	ELSE  shift 156
	IF  reduce 34
	WHILE  reduce 34
	FOR  reduce 34
	ASSERT  reduce 34
	TRUE  reduce 34
	FALSE  reduce 34
	BOOL  reduce 34
	VOID  reduce 34
	DECCONST  reduce 34
	HEXCONST  reduce 34
	IDENT  reduce 34
	RETURN  reduce 34
	INT  reduce 34
	MINUS  reduce 34
	BITNOT  reduce 34
	LOGICNOT  reduce 34
	LBRACE  reduce 34
	RBRACE  reduce 34
	LPAREN  reduce 34

	elseopt  goto 157


state 150
	control : WHILE LPAREN exp RPAREN stmt .  (37)

	.  reduce 37


state 151
	control : FOR LPAREN simpopt SEMI exp . SEMI simpopt RPAREN stmt  (38)
	exp : exp . STAR exp  (54)
	exp : exp . SLASH exp  (55)
	exp : exp . PERCENT exp  (56)
	exp : exp . PLUS exp  (57)
	exp : exp . MINUS exp  (58)
	exp : exp . SAL exp  (59)
	exp : exp . SAR exp  (60)
	exp : exp . LESS exp  (61)
	exp : exp . LESSEQUAL exp  (62)
	exp : exp . GREATER exp  (63)
	exp : exp . GREATEREQUAL exp  (64)
	exp : exp . EQUALS exp  (65)
	exp : exp . NOTEQUALS exp  (66)
	exp : exp . BITAND exp  (67)
	exp : exp . XOR exp  (68)
	exp : exp . BITOR exp  (69)
	exp : exp . LOGICAND exp  (70)
	exp : exp . LOGICOR exp  (71)
	exp : exp . QUESTION exp COLON exp  (72)

	SEMI  shift 158
	PLUS  shift 73
	MINUS  shift 74
	STAR  shift 75
	SLASH  shift 76
	PERCENT  shift 77
	BITAND  shift 78
	BITOR  shift 79
	XOR  shift 80
	LOGICAND  shift 81
	LOGICOR  shift 82
	SAR  shift 83
	SAL  shift 84
	EQUALS  shift 85
	NOTEQUALS  shift 86
	LESSEQUAL  shift 87
	GREATEREQUAL  shift 88
	LESS  shift 89
	GREATER  shift 90
	QUESTION  shift 91
	.  error


state 152
	control : ASSERT LPAREN exp RPAREN SEMI .  (41)

	.  reduce 41


state 153
	arg_list_follow : COMMA exp . arg_list_follow  (43)
	exp : exp . STAR exp  (54)
	exp : exp . SLASH exp  (55)
	exp : exp . PERCENT exp  (56)
	exp : exp . PLUS exp  (57)
	exp : exp . MINUS exp  (58)
	exp : exp . SAL exp  (59)
	exp : exp . SAR exp  (60)
	exp : exp . LESS exp  (61)
	exp : exp . LESSEQUAL exp  (62)
	exp : exp . GREATER exp  (63)
	exp : exp . GREATEREQUAL exp  (64)
	exp : exp . EQUALS exp  (65)
	exp : exp . NOTEQUALS exp  (66)
	exp : exp . BITAND exp  (67)
	exp : exp . XOR exp  (68)
	exp : exp . BITOR exp  (69)
	exp : exp . LOGICAND exp  (70)
	exp : exp . LOGICOR exp  (71)
	exp : exp . QUESTION exp COLON exp  (72)
	arg_list_follow : .  (42)

	PLUS  shift 73
	MINUS  shift 74
	STAR  shift 75
	SLASH  shift 76
	PERCENT  shift 77
	BITAND  shift 78
	BITOR  shift 79
	XOR  shift 80
	LOGICAND  shift 81
	LOGICOR  shift 82
	SAR  shift 83
	SAL  shift 84
	EQUALS  shift 85
	NOTEQUALS  shift 86
	LESSEQUAL  shift 87
	GREATEREQUAL  shift 88
	LESS  shift 89
	GREATER  shift 90
	QUESTION  shift 91
	COMMA  shift 145
	RPAREN  reduce 42

	arg_list_follow  goto 159


state 154
	arg_list : LPAREN exp arg_list_follow RPAREN .  (45)

	.  reduce 45


state 155
	exp : exp . STAR exp  (54)
	exp : exp . SLASH exp  (55)
	exp : exp . PERCENT exp  (56)
	exp : exp . PLUS exp  (57)
	exp : exp . MINUS exp  (58)
	exp : exp . SAL exp  (59)
	exp : exp . SAR exp  (60)
	exp : exp . LESS exp  (61)
	exp : exp . LESSEQUAL exp  (62)
	exp : exp . GREATER exp  (63)
	exp : exp . GREATEREQUAL exp  (64)
	exp : exp . EQUALS exp  (65)
	exp : exp . NOTEQUALS exp  (66)
	exp : exp . BITAND exp  (67)
	exp : exp . XOR exp  (68)
	exp : exp . BITOR exp  (69)
	exp : exp . LOGICAND exp  (70)
	exp : exp . LOGICOR exp  (71)
	exp : exp . QUESTION exp COLON exp  (72)
	exp : exp QUESTION exp COLON exp .  (72)

	PLUS  shift 73
	MINUS  shift 74
	STAR  shift 75
	SLASH  shift 76
	PERCENT  shift 77
	BITAND  shift 78
	BITOR  shift 79
	XOR  shift 80
	LOGICAND  shift 81
	LOGICOR  shift 82
	SAR  shift 83
	SAL  shift 84
	EQUALS  shift 85
	NOTEQUALS  shift 86
	LESSEQUAL  shift 87
	GREATEREQUAL  shift 88
	LESS  shift 89
	GREATER  shift 90
	QUESTION  shift 91
	SEMI  reduce 72
	COLON  reduce 72
	RPAREN  reduce 72
	COMMA  reduce 72


state 156
	elseopt : ELSE . stmt  (35)

	IF  shift 30
	WHILE  shift 31
	FOR  shift 32
	ASSERT  shift 33
	TRUE  shift 34
	FALSE  shift 35
	BOOL  shift 4
	VOID  shift 5
	DECCONST  shift 36
	HEXCONST  shift 37
	IDENT  shift 38
	RETURN  shift 39
	INT  shift 7
	MINUS  shift 40
	BITNOT  shift 41
	LOGICNOT  shift 42
	LBRACE  shift 25
	LPAREN  shift 43
	.  error

	typ  goto 44
	block  goto 45
	decl  goto 47
	exp  goto 48
	stmt  goto 160
	simp  goto 50
	control  goto 51
	lvalue  goto 52
	intconst  goto 53


state 157
	control : IF LPAREN exp RPAREN stmt elseopt .  (36)

	.  reduce 36


state 158
	control : FOR LPAREN simpopt SEMI exp SEMI . simpopt RPAREN stmt  (38)
	simpopt : .  (30)

	TRUE  shift 34
	FALSE  shift 35
	BOOL  shift 4
	VOID  shift 5
	DECCONST  shift 36
	HEXCONST  shift 37
	IDENT  shift 38
	INT  shift 7
	MINUS  shift 40
	BITNOT  shift 41
	LOGICNOT  shift 42
	LPAREN  shift 43
	RPAREN  reduce 30

	typ  goto 44
	decl  goto 47
	exp  goto 48
	simp  goto 112
	lvalue  goto 52
	simpopt  goto 161
	intconst  goto 53


state 159
	arg_list_follow : COMMA exp arg_list_follow .  (43)

	.  reduce 43


state 160
	elseopt : ELSE stmt .  (35)

	.  reduce 35


state 161
	control : FOR LPAREN simpopt SEMI exp SEMI simpopt . RPAREN stmt  (38)

	RPAREN  shift 162
	.  error


state 162
	control : FOR LPAREN simpopt SEMI exp SEMI simpopt RPAREN . stmt  (38)

	IF  shift 30
	WHILE  shift 31
	FOR  shift 32
	ASSERT  shift 33
	TRUE  shift 34
	FALSE  shift 35
	BOOL  shift 4
	VOID  shift 5
	DECCONST  shift 36
	HEXCONST  shift 37
	IDENT  shift 38
	RETURN  shift 39
	INT  shift 7
	MINUS  shift 40
	BITNOT  shift 41
	LOGICNOT  shift 42
	LBRACE  shift 25
	LPAREN  shift 43
	.  error

	typ  goto 44
	block  goto 45
	decl  goto 47
	exp  goto 48
	stmt  goto 163
	simp  goto 50
	control  goto 51
	lvalue  goto 52
	intconst  goto 53


state 163
	control : FOR LPAREN simpopt SEMI exp SEMI simpopt RPAREN stmt .  (38)

	.  reduce 38


State 70 contains 1 shift/reduce conflict.
State 149 contains 1 shift/reduce conflict.


70 terminals, 26 nonterminals
90 grammar rules, 164 states
